digraph G {
"world" -> "root"[label="Broadcaster: /m1n6s200_state_publisher\nAverage rate: 10000.000 Hz\nMost recent transform: 0.000 ( 1528342329.822 sec old)\nBuffer length: 0.000 sec\n"];
"root" -> "m1n6s200_link_base"[label="Broadcaster: /m1n6s200_state_publisher\nAverage rate: 10000.000 Hz\nMost recent transform: 0.000 ( 1528342329.822 sec old)\nBuffer length: 0.000 sec\n"];
"m1n6s200_link_6" -> "m1n6s200_end_effector"[label="Broadcaster: /m1n6s200_state_publisher\nAverage rate: 10000.000 Hz\nMost recent transform: 0.000 ( 1528342329.822 sec old)\nBuffer length: 0.000 sec\n"];
"m1n6s200_link_5" -> "m1n6s200_link_6"[label="Broadcaster: /m1n6s200_state_publisher\nAverage rate: 11.000 Hz\nMost recent transform: 1528342329.618 ( 0.204 sec old)\nBuffer length: 1.000 sec\n"];
"m1n6s200_link_finger_1" -> "m1n6s200_link_finger_tip_1"[label="Broadcaster: /m1n6s200_state_publisher\nAverage rate: 10000.000 Hz\nMost recent transform: 0.000 ( 1528342329.822 sec old)\nBuffer length: 0.000 sec\n"];
"m1n6s200_link_6" -> "m1n6s200_link_finger_1"[label="Broadcaster: /m1n6s200_state_publisher\nAverage rate: 11.000 Hz\nMost recent transform: 1528342329.618 ( 0.204 sec old)\nBuffer length: 1.000 sec\n"];
"m1n6s200_link_finger_2" -> "m1n6s200_link_finger_tip_2"[label="Broadcaster: /m1n6s200_state_publisher\nAverage rate: 10000.000 Hz\nMost recent transform: 0.000 ( 1528342329.822 sec old)\nBuffer length: 0.000 sec\n"];
"m1n6s200_link_6" -> "m1n6s200_link_finger_2"[label="Broadcaster: /m1n6s200_state_publisher\nAverage rate: 11.000 Hz\nMost recent transform: 1528342329.618 ( 0.204 sec old)\nBuffer length: 1.000 sec\n"];
"camera_link" -> "camera_rgb_frame"[label="Broadcaster: /camera/camera_nodelet_manager\nAverage rate: 10000.000 Hz\nMost recent transform: 0.000 ( 1528342329.822 sec old)\nBuffer length: 0.000 sec\n"];
"m1n6s200_link_6" -> "camera_link"[label="Broadcaster: /realsense_link_broadcaster\nAverage rate: 98.772 Hz\nMost recent transform: 1528342329.690 ( 0.132 sec old)\nBuffer length: 1.124 sec\n"];
"camera_rgb_frame" -> "camera_rgb_optical_frame"[label="Broadcaster: /camera/camera_nodelet_manager\nAverage rate: 10000.000 Hz\nMost recent transform: 0.000 ( 1528342329.822 sec old)\nBuffer length: 0.000 sec\n"];
"camera_link" -> "camera_depth_frame"[label="Broadcaster: /camera/camera_nodelet_manager\nAverage rate: 10000.000 Hz\nMost recent transform: 0.000 ( 1528342329.822 sec old)\nBuffer length: 0.000 sec\n"];
"camera_depth_frame" -> "camera_depth_optical_frame"[label="Broadcaster: /camera/camera_nodelet_manager\nAverage rate: 10000.000 Hz\nMost recent transform: 0.000 ( 1528342329.822 sec old)\nBuffer length: 0.000 sec\n"];
"camera_link" -> "camera_ir_frame"[label="Broadcaster: /camera/camera_nodelet_manager\nAverage rate: 10000.000 Hz\nMost recent transform: 0.000 ( 1528342329.822 sec old)\nBuffer length: 0.000 sec\n"];
"camera_ir_frame" -> "camera_ir_optical_frame"[label="Broadcaster: /camera/camera_nodelet_manager\nAverage rate: 10000.000 Hz\nMost recent transform: 0.000 ( 1528342329.822 sec old)\nBuffer length: 0.000 sec\n"];
"m1n6s200_link_base" -> "m1n6s200_link_1"[label="Broadcaster: /m1n6s200_state_publisher\nAverage rate: 11.000 Hz\nMost recent transform: 1528342329.618 ( 0.204 sec old)\nBuffer length: 1.000 sec\n"];
"m1n6s200_link_1" -> "m1n6s200_link_2"[label="Broadcaster: /m1n6s200_state_publisher\nAverage rate: 11.000 Hz\nMost recent transform: 1528342329.618 ( 0.204 sec old)\nBuffer length: 1.000 sec\n"];
"m1n6s200_link_2" -> "m1n6s200_link_3"[label="Broadcaster: /m1n6s200_state_publisher\nAverage rate: 11.000 Hz\nMost recent transform: 1528342329.618 ( 0.204 sec old)\nBuffer length: 1.000 sec\n"];
"m1n6s200_link_3" -> "m1n6s200_link_4"[label="Broadcaster: /m1n6s200_state_publisher\nAverage rate: 11.000 Hz\nMost recent transform: 1528342329.618 ( 0.204 sec old)\nBuffer length: 1.000 sec\n"];
"m1n6s200_link_4" -> "m1n6s200_link_5"[label="Broadcaster: /m1n6s200_state_publisher\nAverage rate: 11.000 Hz\nMost recent transform: 1528342329.618 ( 0.204 sec old)\nBuffer length: 1.000 sec\n"];
edge [style=invis];
 subgraph cluster_legend { style=bold; color=black; label ="view_frames Result";
"Recorded at time: 1528342329.822"[ shape=plaintext ] ;
 }->"world";
}