centre

joint1: 284.117645264
joint2: 182.481613159
joint3: 91.8198547363
joint4: 200.25
joint5: -85.5681838989
joint6: 220.227279663
joint7: 0.0

left
--
joint1: 241.102935791
joint2: 182.481613159
joint3: 91.8198547363
joint4: 200.25
joint5: -85.5681838989
joint6: 220.227279663
joint7: 0.0

right
--
joint1: 322.996337891
joint2: 182.481613159
joint3: 91.8198547363
joint4: 202.43182373
joint5: -85.4318237305
joint6: 220.227279663
joint7: 0.0
----
